module fp_go_sanbercode30

// +heroku goVersion go1.17
go 1.17

require (
	github.com/KyleBanks/depth v1.2.1 // indirect
	github.com/PuerkitoBio/purell v1.1.1 // indirect
	github.com/PuerkitoBio/urlesc v0.0.0-20170810143723-de5bf2ad4578 // indirect
	github.com/cpuguy83/go-md2man/v2 v2.0.1 // indirect
	github.com/ghodss/yaml v1.0.0 // indirect
	github.com/gin-contrib/sse v0.1.0 // indirect
	github.com/gin-gonic/gin v1.7.7 // indirect
	github.com/go-openapi/jsonpointer v0.19.5 // indirect
	github.com/go-openapi/jsonreference v0.19.6 // indirect
	github.com/go-openapi/spec v0.20.4 // indirect
	github.com/go-openapi/swag v0.19.15 // indirect
	github.com/go-playground/locales v0.14.0 // indirect
	github.com/go-playground/universal-translator v0.18.0 // indirect
	github.com/go-playground/validator/v10 v10.9.0 // indirect
	github.com/go-sql-driver/mysql v1.6.0 // indirect
	github.com/golang-jwt/jwt v3.2.2+incompatible // indirect
	github.com/golang/protobuf v1.5.2 // indirect
	github.com/jackc/chunkreader/v2 v2.0.1 // indirect
	github.com/jackc/pgconn v1.10.1 // indirect
	github.com/jackc/pgio v1.0.0 // indirect
	github.com/jackc/pgpassfile v1.0.0 // indirect
	github.com/jackc/pgproto3/v2 v2.2.0 // indirect
	github.com/jackc/pgservicefile v0.0.0-20200714003250-2b9c44734f2b // indirect
	github.com/jackc/pgtype v1.9.0 // indirect
	github.com/jackc/pgx/v4 v4.14.0 // indirect
	github.com/jinzhu/inflection v1.0.0 // indirect
	github.com/jinzhu/now v1.1.4 // indirect
	github.com/joho/godotenv v1.4.0 // indirect
	github.com/josharian/intern v1.0.0 // indirect
	github.com/json-iterator/go v1.1.12 // indirect
	github.com/leodido/go-urn v1.2.1 // indirect
	github.com/mailru/easyjson v0.7.7 // indirect
	github.com/mattn/go-isatty v0.0.14 // indirect
	github.com/modern-go/concurrent v0.0.0-20180306012644-bacd9c7ef1dd // indirect
	github.com/modern-go/reflect2 v1.0.2 // indirect
	github.com/russross/blackfriday/v2 v2.1.0 // indirect
	github.com/shurcooL/sanitized_anchor_name v1.0.0 // indirect
	github.com/swaggo/files v0.0.0-20210815190702-a29dd2bc99b2 // indirect
	github.com/swaggo/gin-swagger v1.3.3 // indirect
	github.com/swaggo/swag v1.7.8 // indirect
	github.com/ugorji/go/codec v1.2.6 // indirect
	github.com/urfave/cli/v2 v2.3.0 // indirect
	golang.org/x/crypto v0.0.0-20211215153901-e495a2d5b3d3 // indirect
	golang.org/x/net v0.0.0-20211216030914-fe4d6282115f // indirect
	golang.org/x/sys v0.0.0-20211216021012-1d35b9e2eb4e // indirect
	golang.org/x/text v0.3.7 // indirect
	golang.org/x/tools v0.1.8 // indirect
	google.golang.org/protobuf v1.27.1 // indirect
	gopkg.in/yaml.v2 v2.4.0 // indirect
	gorm.io/driver/mysql v1.2.1 // indirect
	gorm.io/driver/postgres v1.2.3 // indirect
	gorm.io/gorm v1.22.4 // indirect
)
